[
  { "content": [{"id": 1, "name": "Nome 1", "description": "descrição 1", "active": true, "createdDate": "2020-03-27T17:15:20.341", "createdBy": "adm@local.x", "modifiedBy": "adm@local.x"},{"id": 2, "name": "Nome 2", "description": "descrição 2", "active": false, "createdDate": "2020-02-04T11:51:28.283", "createdBy": "adm@local.x", "modifiedBy": "adm@local.x"},{"id": 3, "name": "Nome 3", "description": "descrição 3", "active": true, "createdDate": "2018-12-20T00:39:19.122328", "createdBy": "adm@local.x", "modifiedBy": "adm@local.x"},{"id": 4, "name": "Nome 4", "description": "descrição 4", "active": true, "createdDate": "2018-12-20T00:39:19.122328", "createdBy": "adm@local.x", "modifiedBy": "adm@local.x"},{"id": 5, "name": "Nome 5", "description": "descrição 5", "active": true, "createdDate": "2020-02-08T20:10:09.87", "createdBy": "adm@local.x", "modifiedBy": "adm@local.x"} ], "pageable": {"sort": { "sorted": false, "unsorted": true }, "pageSize": 5, "pageNumber": 0, "offset": 0, "paged": true, "unpaged": false }, "last": false, "totalElements": 20, "totalPages": 4, "numberOfElements": 5, "first": true, "sort": { "sorted": false, "unsorted": true }, "size": 5, "number": 0 },
  { "content": [{"id": 6, "name": "Nome 6", "description": "descrição 6", "active": true, "createdDate": "2018-12-20T00:39:19.122328", "createdBy": "adm@local.x", "modifiedBy": "adm@local.x"},{"id": 7, "name": "Nome 7", "description": "descrição 7", "active": true, "createdDate": "2018-12-20T00:39:19.122328", "createdBy": "adm@local.x", "modifiedBy": "adm@local.x"},{"id": 8, "name": "Nome 8", "description": "descrição 8", "active": true, "createdDate": "2018-12-20T00:39:19.122328", "createdBy": "adm@local.x", "modifiedBy": "adm@local.x"},{"id": 9, "name": "Nome 9", "description": "descrição 9", "active": true, "createdDate": "2018-12-20T00:39:19.122328", "createdBy": "adm@local.x", "modifiedBy": "adm@local.x"},{"id": 10, "name": "Nome 10", "description": "descrição 10", "active": true, "createdDate": "2018-12-20T00:39:19.122328", "createdBy": "adm@local.x", "modifiedBy": "adm@local.x"} ], "pageable": {"sort": { "sorted": false, "unsorted": true }, "pageSize": 5, "pageNumber": 1, "offset": 5, "paged": true, "unpaged": false }, "last": false, "totalElements": 20, "totalPages": 4, "numberOfElements": 5, "first": false, "sort": { "sorted": false, "unsorted": true }, "size": 5, "number": 1 },
  { "content": [{"id": 11, "name": "Nome 11", "description": "descrição 11", "active": true, "createdDate": "2018-12-20T00:39:19.122328", "createdBy": "adm@local.x", "modifiedBy": "adm@local.x"},{"id": 12, "name": "Nome 12", "description": "descrição 12", "active": true, "createdDate": "2018-12-20T00:39:19.122328", "createdBy": "adm@local.x", "modifiedBy": "adm@local.x"},{"id": 13, "name": "Nome 13", "description": "descrição 13", "active": true, "createdDate": "2020-04-02T17:05:02.908", "createdBy": "adm@local.x", "modifiedBy": "adm@local.x"},{"id": 14, "name": "Nome 14", "description": "descrição 14", "active": true, "createdDate": "2020-02-25T16:22:22.897", "createdBy": "adm@local.x", "modifiedBy": "adm@local.x"},{"id": 15, "name": "Nome 15", "description": "descrição 15", "active": true, "createdDate": "2020-04-03T19:53:47.283", "createdBy": "adm@local.x", "modifiedBy": "adm@local.x"} ], "pageable": {"sort": { "sorted": false, "unsorted": true }, "pageSize": 5, "pageNumber": 2, "offset": 10, "paged": true, "unpaged": false }, "last": false, "totalElements": 20, "totalPages": 4, "numberOfElements": 5, "first": false, "sort": { "sorted": false, "unsorted": true }, "size": 5, "number": 2 },
  { "content": [{"id": 16, "name": "Nome 16", "description": "descrição 16", "active": true, "createdDate": "2020-02-04T13:15:35.038", "createdBy": "adm@local.x", "modifiedBy": "adm@local.x"},{"id": 17, "name": "Nome 17", "description": "descrição 17", "active": true, "createdDate": "2020-02-04T12:49:33.536", "createdBy": "adm@local.x", "modifiedBy": "adm@local.x"},{"id": 18, "name": "Nome 18", "description": "descrição 18", "active": true, "createdDate": "2020-02-22T18:36:57.022", "createdBy": "adm@local.x", "modifiedBy": "adm@local.x"},{"id": 19, "name": "Nome 19", "description": "descrição 19", "active": true, "createdDate": "2020-04-03T19:52:13.104", "createdBy": "adm@local.x", "modifiedBy": "adm@local.x"},{"id": 20, "name": "Nome 20", "description": "descrição 20", "active": true, "createdDate": "2018-12-19T23:00:11.283494", "createdBy": "adm@local.x", "modifiedBy": "adm@local.x"} ], "pageable": {"sort": { "sorted": false, "unsorted": true }, "pageSize": 5, "pageNumber": 3, "offset": 15, "paged": true, "unpaged": false }, "last": true, "totalElements": 20, "totalPages": 4, "numberOfElements": 5, "first": false, "sort": { "sorted": false, "unsorted": true }, "size": 5, "number": 3 }
]
